{
  "definitions": {},
  "$schema": "http://json-schema.org/draft-07/schema#",
  "$id": "http://example.com/root.json",
  "type": "object",
  "title": "The Root Schema",
  "required": [
    "clientErrorCode",
    "clientErrorMessage",
    "errorCode",
    "externalErrorCode",
    "errorMessages"
  ],
  "properties": {
    "clientErrorCode": {
      "$id": "#/properties/clientErrorCode",
      "type": "integer",
      "title": "The Clienterrorcode Schema",
      "default": 0,
      "examples": [
        400
      ]
    },
    "clientErrorMessage": {
      "$id": "#/properties/clientErrorMessage",
      "type": "null",
      "title": "The Clienterrormessage Schema",
      "default": null,
      "examples": [
        null
      ]
    },
    "errorCode": {
      "$id": "#/properties/errorCode",
      "type": "integer",
      "title": "The Errorcode Schema",
      "default": 0,
      "examples": [
        400
      ]
    },
    "externalErrorCode": {
      "$id": "#/properties/externalErrorCode",
      "type": "null",
      "title": "The Externalerrorcode Schema",
      "default": null,
      "examples": [
        null
      ]
    },
    "errorMessages": {
      "$id": "#/properties/errorMessages",
      "type": "array",
      "title": "The Errormessages Schema",
      "items": {
        "$id": "#/properties/errorMessages/items",
        "type": "string",
        "title": "The Items Schema",
        "default": "",
        "examples": [
          "username, tiene un formato de correo electrónico inválido"
        ],
        "pattern": "^(.*)$"
      }
    }
  }
}