{
  "clientErrorCode": 100101,
  "clientErrorMessage": "Índice de inicio de paginación o tamaño de parámetro inválido",
  "errorCode": 100101,
  "externalErrorCode": null,
  "errorMessages": [
    "Índice de inicio de paginación o tamaño de parámetro inválido"
  ]
}