 {
   "definitions": {},
   "$schema": "http://json-schema.org/draft-07/schema#",
   "$id": "http://example.com/root.json",
   "type": "object",
   "title": "The Root Schema",
   "required": [
     "accessToken",
     "success",
     "attemptsRemaining",
     "status",
     "waitMinutes"
   ],
   "properties": {
     "accessToken": {
       "$id": "#/properties/accessToken",
       "type": "string",
       "title": "The Accesstoken Schema",
       "default": "",
       "examples": [
         ""
       ],
       "pattern": "^(.*)$"
     },
     "success": {
       "$id": "#/properties/success",
       "type": "boolean",
       "title": "The Success Schema",
       "default": false,
       "examples": [
         false
       ]
     },
     "attemptsRemaining": {
       "$id": "#/properties/attemptsRemaining",
       "type": "integer",
       "title": "The Attemptsremaining Schema",
       "default": 0,
       "examples": [
         0
       ]
     },
     "status": {
       "$id": "#/properties/status",
       "type": "string",
       "title": "The Status Schema",
       "default": "",
       "examples": [
         "PIN_BLOCKED"
       ],
       "pattern": "^(.*)$"
     },
     "waitMinutes": {
       "$id": "#/properties/waitMinutes",
       "type": "integer",
       "title": "The Waitminutes Schema",
       "default": 0,
       "examples": [
         5
       ]
     }
   }
 }